EESchema Schematic File Version 4
EELAYER 30 0
EELAYER END
$Descr A4 11693 8268
encoding utf-8
Sheet 1 1
Title ""
Date ""
Rev ""
Comp ""
Comment1 ""
Comment2 ""
Comment3 ""
Comment4 ""
$EndDescr
$Comp
L Regulator_Linear:LM7805_TO220 U1
U 1 1 63314743
P 4850 4150
F 0 "U1" H 4850 4392 50  0000 C CNN
F 1 "LM7805_TO220" H 4850 4301 50  0000 C CNN
F 2 "Package_TO_SOT_THT:TO-220-3_Vertical" H 4850 4375 50  0001 C CIN
F 3 "https://www.onsemi.cn/PowerSolutions/document/MC7800-D.PDF" H 4850 4100 50  0001 C CNN
	1    4850 4150
	1    0    0    -1  
$EndComp
$Comp
L Device:C C2
U 1 1 63315415
P 5150 4300
F 0 "C2" H 5265 4346 50  0000 L CNN
F 1 "10mk" H 5265 4255 50  0000 L CNN
F 2 "Capacitor_THT:CP_Radial_D4.0mm_P2.00mm" H 5188 4150 50  0001 C CNN
F 3 "~" H 5150 4300 50  0001 C CNN
	1    5150 4300
	1    0    0    -1  
$EndComp
$Comp
L Device:R R2
U 1 1 63315DA4
P 5550 4300
F 0 "R2" H 5620 4346 50  0000 L CNN
F 1 "R" H 5620 4255 50  0000 L CNN
F 2 "Resistor_THT:R_Axial_DIN0414_L11.9mm_D4.5mm_P5.08mm_Vertical" V 5480 4300 50  0001 C CNN
F 3 "~" H 5550 4300 50  0001 C CNN
	1    5550 4300
	1    0    0    -1  
$EndComp
Wire Wire Line
	5150 4150 5550 4150
Connection ~ 5150 4150
$Comp
L Device:C C1
U 1 1 63316654
P 4550 4300
F 0 "C1" H 4665 4346 50  0000 L CNN
F 1 "1mk" H 4665 4255 50  0000 L CNN
F 2 "Capacitor_THT:C_Rect_L7.0mm_W4.5mm_P5.00mm" H 4588 4150 50  0001 C CNN
F 3 "~" H 4550 4300 50  0001 C CNN
	1    4550 4300
	1    0    0    -1  
$EndComp
$Comp
L Device:R R1
U 1 1 63316CFD
P 4300 4300
F 0 "R1" H 4370 4346 50  0000 L CNN
F 1 "R" H 4370 4255 50  0000 L CNN
F 2 "Resistor_THT:R_Axial_DIN0414_L11.9mm_D4.5mm_P5.08mm_Vertical" V 4230 4300 50  0001 C CNN
F 3 "~" H 4300 4300 50  0001 C CNN
	1    4300 4300
	1    0    0    -1  
$EndComp
Wire Wire Line
	4300 4150 4550 4150
Connection ~ 4550 4150
$Comp
L power:GND #PWR01
U 1 1 63317397
P 4300 4450
F 0 "#PWR01" H 4300 4200 50  0001 C CNN
F 1 "GND" H 4305 4277 50  0000 C CNN
F 2 "" H 4300 4450 50  0001 C CNN
F 3 "" H 4300 4450 50  0001 C CNN
	1    4300 4450
	1    0    0    -1  
$EndComp
$Comp
L power:GND #PWR02
U 1 1 63317902
P 4550 4450
F 0 "#PWR02" H 4550 4200 50  0001 C CNN
F 1 "GND" H 4555 4277 50  0000 C CNN
F 2 "" H 4550 4450 50  0001 C CNN
F 3 "" H 4550 4450 50  0001 C CNN
	1    4550 4450
	1    0    0    -1  
$EndComp
$Comp
L power:GND #PWR03
U 1 1 63317E66
P 4850 4450
F 0 "#PWR03" H 4850 4200 50  0001 C CNN
F 1 "GND" H 4855 4277 50  0000 C CNN
F 2 "" H 4850 4450 50  0001 C CNN
F 3 "" H 4850 4450 50  0001 C CNN
	1    4850 4450
	1    0    0    -1  
$EndComp
$Comp
L power:GND #PWR04
U 1 1 63318115
P 5150 4450
F 0 "#PWR04" H 5150 4200 50  0001 C CNN
F 1 "GND" H 5155 4277 50  0000 C CNN
F 2 "" H 5150 4450 50  0001 C CNN
F 3 "" H 5150 4450 50  0001 C CNN
	1    5150 4450
	1    0    0    -1  
$EndComp
$Comp
L power:GND #PWR05
U 1 1 6331838A
P 5550 4450
F 0 "#PWR05" H 5550 4200 50  0001 C CNN
F 1 "GND" H 5555 4277 50  0000 C CNN
F 2 "" H 5550 4450 50  0001 C CNN
F 3 "" H 5550 4450 50  0001 C CNN
	1    5550 4450
	1    0    0    -1  
$EndComp
$EndSCHEMATC
